992
-64 496 -64 64 -64 64 -64 56
-8 -16 -8 8 -32 -40 832
-40 -40 -40 -40 -40 -40 -40 656
-184 -64 -128 -56 -64 456
256 -128 -56 -64 -88 360
-56 928
992
-24 -16 -40 -96 -192 -240 -336
-400 -584
-400 -584
