-8 -16 -24 -32 -40 -48 -56 -64 -72 80 -88 -96 272
-960 -8 8
992
-16 -32 -48 64 -80 712
-80 -160 -240 -8 472
8 -16 24 -32 40 -48 776
992
992
-40 -32 -24 -16 -8 -16 -24 -32 -40 688
24 -8 32 -8 -40 840
32 -160 784
128 -48 128 -72 -48 -72 448
-240 400 -152 176
-8 976
